/In:"C:\Users\rikwa\source\repos\iDBPS\centrale-verwerkings-unit-pi\centrale-verwerkings-unit\centrale-verwerkings-unit\obj\ARM\Release\ilc\in"
/Lib:"C:\Users\rikwa\source\repos\iDBPS\centrale-verwerkings-unit-pi\centrale-verwerkings-unit\centrale-verwerkings-unit\obj\ARM\Release\ilc\in"
/Lib:"C:\Program Files (x86)\Microsoft SDKs\UWPNuGetPackages\microsoft.net.native.compiler\1.7.6\tools\ARM\ilc\lib\Private"
/WinMD:"C:\Users\rikwa\source\repos\iDBPS\centrale-verwerkings-unit-pi\centrale-verwerkings-unit\centrale-verwerkings-unit\obj\ARM\Release\ilc\in\WinMetadata\Windows.winmd"
/VSTelemetrySessionSettings:"{"IsOptedIn":true,"HostName":"Dev14","AppInsightsInstrumentationKey":"f144292e-e3b2-4011-ac90-20e5c03fbce5","AsimovInstrumentationKey":"AIF-312cbd79-9dbb-4c48-a7da-3cc2a931cb70","AppId":1001,"UserId":"d641946d-4749-464d-a569-a5edc531fd00","Id":"0a1a1e70-e11f-4a2c-b62f-ed7ccbd79c6f","ProcessStartTime":637118211542776631}"
/RdXmlPath:"C:\Program Files (x86)\Microsoft SDKs\UWPNuGetPackages\microsoft.net.native.compiler\1.7.6\tools\LibraryXML"
/RunOnlyPreDR
